EESchema Schematic File Version 4
EELAYER 30 0
EELAYER END
$Descr A4 11693 8268
encoding utf-8
Sheet 5 5
Title "Vy-pi-nac"
Date "2021-09-30"
Rev "1.0.0"
Comp "(c) qyx@krtko.org, CC-BY-SA 4.0"
Comment1 "Wall switch controller with CAN-FD interface"
Comment2 ""
Comment3 ""
Comment4 ""
$EndDescr
$Comp
L passives:TBU TBU1
U 1 1 61570510
P 7900 3500
F 0 "TBU1" H 7900 3600 50  0000 C CNN
F 1 "TBU-CA065-200" H 7900 3700 50  0000 C CNN
F 2 "passives:TBU-CA" H 7900 3500 50  0001 C CNN
F 3 "" H 7900 3500 50  0001 C CNN
	1    7900 3500
	1    0    0    -1  
$EndComp
$Comp
L passives:GDT3 GDT1
U 1 1 61570A1C
P 8800 3600
F 0 "GDT1" H 8700 3800 50  0000 L CNN
F 1 "SL1010A090SM" H 8500 3900 50  0000 L CNN
F 2 "passives:SL1010A" H 8800 3600 50  0001 C CNN
F 3 "" H 8800 3600 50  0001 C CNN
	1    8800 3600
	1    0    0    -1  
$EndComp
$Comp
L Device:C_Small C3
U 1 1 61573811
P 4600 2800
F 0 "C3" H 4692 2846 50  0000 L CNN
F 1 "100n" H 4692 2755 50  0000 L CNN
F 2 "Capacitor_SMD:C_0603_1608Metric" H 4600 2800 50  0001 C CNN
F 3 "~" H 4600 2800 50  0001 C CNN
	1    4600 2800
	1    0    0    -1  
$EndComp
$Comp
L Device:C_Small C1
U 1 1 61573DB1
P 3800 2800
F 0 "C1" H 3892 2846 50  0000 L CNN
F 1 "100n" H 3892 2755 50  0000 L CNN
F 2 "Capacitor_SMD:C_0603_1608Metric" H 3800 2800 50  0001 C CNN
F 3 "~" H 3800 2800 50  0001 C CNN
	1    3800 2800
	1    0    0    -1  
$EndComp
Wire Wire Line
	4500 3500 4300 3500
Wire Wire Line
	4300 3500 4300 2600
Wire Wire Line
	4600 2600 4600 2700
Wire Wire Line
	4300 2600 4600 2600
$Comp
L power:+3V3 #PWR0101
U 1 1 61574E11
P 3800 2500
F 0 "#PWR0101" H 3800 2350 50  0001 C CNN
F 1 "+3V3" H 3815 2673 50  0000 C CNN
F 2 "" H 3800 2500 50  0001 C CNN
F 3 "" H 3800 2500 50  0001 C CNN
	1    3800 2500
	1    0    0    -1  
$EndComp
Wire Wire Line
	4600 2500 4600 2600
Connection ~ 4600 2600
Wire Wire Line
	3800 2700 3800 2600
Wire Wire Line
	3800 2600 4200 2600
Wire Wire Line
	4200 2600 4200 3600
Wire Wire Line
	4200 3600 4500 3600
$Comp
L power:+5V #PWR0102
U 1 1 61575BBA
P 4600 2500
F 0 "#PWR0102" H 4600 2350 50  0001 C CNN
F 1 "+5V" H 4615 2673 50  0000 C CNN
F 2 "" H 4600 2500 50  0001 C CNN
F 3 "" H 4600 2500 50  0001 C CNN
	1    4600 2500
	1    0    0    -1  
$EndComp
Wire Wire Line
	3800 2500 3800 2600
Connection ~ 3800 2600
$Comp
L power:GNDD #PWR0103
U 1 1 615745F2
P 4600 2900
F 0 "#PWR0103" H 4600 2650 50  0001 C CNN
F 1 "GNDD" H 4604 2745 50  0000 C CNN
F 2 "" H 4600 2900 50  0001 C CNN
F 3 "" H 4600 2900 50  0001 C CNN
	1    4600 2900
	1    0    0    -1  
$EndComp
$Comp
L power:GNDD #PWR0104
U 1 1 6157659C
P 3800 2900
F 0 "#PWR0104" H 3800 2650 50  0001 C CNN
F 1 "GNDD" H 3804 2745 50  0000 C CNN
F 2 "" H 3800 2900 50  0001 C CNN
F 3 "" H 3800 2900 50  0001 C CNN
	1    3800 2900
	1    0    0    -1  
$EndComp
$Comp
L power:GNDD #PWR0105
U 1 1 6157692B
P 4300 4500
F 0 "#PWR0105" H 4300 4250 50  0001 C CNN
F 1 "GNDD" H 4304 4345 50  0000 C CNN
F 2 "" H 4300 4500 50  0001 C CNN
F 3 "" H 4300 4500 50  0001 C CNN
	1    4300 4500
	1    0    0    -1  
$EndComp
Wire Wire Line
	4500 4400 4300 4400
Wire Wire Line
	4300 4400 4300 4500
Wire Wire Line
	4500 4300 4300 4300
Wire Wire Line
	4300 4300 4300 4400
Connection ~ 4300 4400
$Comp
L Device:C_Small C2
U 1 1 61577354
P 3200 4300
F 0 "C2" H 3292 4346 50  0000 L CNN
F 1 "12p" H 3292 4255 50  0000 L CNN
F 2 "Capacitor_SMD:C_0603_1608Metric" H 3200 4300 50  0001 C CNN
F 3 "~" H 3200 4300 50  0001 C CNN
	1    3200 4300
	1    0    0    -1  
$EndComp
$Comp
L power:GNDD #PWR0106
U 1 1 61577ABB
P 3200 4500
F 0 "#PWR0106" H 3200 4250 50  0001 C CNN
F 1 "GNDD" H 3204 4345 50  0000 C CNN
F 2 "" H 3200 4500 50  0001 C CNN
F 3 "" H 3200 4500 50  0001 C CNN
	1    3200 4500
	1    0    0    -1  
$EndComp
Wire Wire Line
	3200 4500 3200 4400
Wire Wire Line
	3200 4100 3200 4200
Connection ~ 3200 4100
$Comp
L Device:R_Small R1
U 1 1 61578EA9
P 2800 3700
F 0 "R1" V 2700 3600 50  0000 C CNN
F 1 "100R" V 2700 3800 50  0000 C CNN
F 2 "Resistor_SMD:R_0603_1608Metric" H 2800 3700 50  0001 C CNN
F 3 "~" H 2800 3700 50  0001 C CNN
	1    2800 3700
	0    1    1    0   
$EndComp
Wire Wire Line
	3300 3800 3300 3700
Wire Wire Line
	3300 3700 2900 3700
Wire Wire Line
	3200 4000 3200 3900
Wire Wire Line
	3200 3900 2900 3900
Wire Wire Line
	2900 4100 3200 4100
$Comp
L Device:R_Small R3
U 1 1 6157A74E
P 2800 4100
F 0 "R3" V 2700 4000 50  0000 C CNN
F 1 "39R" V 2700 4200 50  0000 C CNN
F 2 "Resistor_SMD:R_0603_1608Metric" H 2800 4100 50  0001 C CNN
F 3 "~" H 2800 4100 50  0001 C CNN
	1    2800 4100
	0    1    1    0   
$EndComp
$Comp
L Device:R_Small R2
U 1 1 6157B180
P 2800 3900
F 0 "R2" V 2700 3800 50  0000 C CNN
F 1 "39R" V 2700 4000 50  0000 C CNN
F 2 "Resistor_SMD:R_0603_1608Metric" H 2800 3900 50  0001 C CNN
F 3 "~" H 2800 3900 50  0001 C CNN
	1    2800 3900
	0    1    1    0   
$EndComp
Wire Wire Line
	2700 3700 2500 3700
Wire Wire Line
	2700 3900 2500 3900
Wire Wire Line
	2700 4100 2500 4100
Text GLabel 2500 3700 0    50   Input ~ 0
FDCAN1_SHDN
Text GLabel 2500 3900 0    50   Input ~ 0
FDCAN1_TX
Text GLabel 2500 4100 0    50   Input ~ 0
FDCAN1_RX
$Comp
L Device:R_Small R4
U 1 1 6157D466
P 6200 3500
F 0 "R4" V 6100 3400 50  0000 C CNN
F 1 "10R" V 6100 3600 50  0000 C CNN
F 2 "Resistor_SMD:R_0603_1608Metric" H 6200 3500 50  0001 C CNN
F 3 "~" H 6200 3500 50  0001 C CNN
	1    6200 3500
	0    1    1    0   
$EndComp
$Comp
L Device:R_Small R5
U 1 1 6157D807
P 6200 3700
F 0 "R5" V 6100 3600 50  0000 C CNN
F 1 "10R" V 6100 3800 50  0000 C CNN
F 2 "Resistor_SMD:R_0603_1608Metric" H 6200 3700 50  0001 C CNN
F 3 "~" H 6200 3700 50  0001 C CNN
	1    6200 3700
	0    1    1    0   
$EndComp
$Comp
L passives:Bourns_SRF2012A FLT1
U 1 1 6157EE92
P 6800 3600
F 0 "FLT1" H 6800 3881 50  0000 C CNN
F 1 "SRF3216-261Y" H 6800 3790 50  0000 C CNN
F 2 "passives:SRF3216" H 6800 3600 50  0001 C CNN
F 3 "" H 6800 3600 50  0001 C CNN
	1    6800 3600
	1    0    0    -1  
$EndComp
Wire Wire Line
	6300 3500 6600 3500
Wire Wire Line
	6600 3700 6300 3700
$Comp
L Power_Protection:NUP2105L D1
U 1 1 615809F2
P 7300 4000
F 0 "D1" H 7500 3800 50  0000 L CNN
F 1 "NUP2105L" H 7500 3700 50  0000 L CNN
F 2 "Package_TO_SOT_SMD:SOT-23" H 7525 3950 50  0001 L CNN
F 3 "http://www.onsemi.com/pub_link/Collateral/NUP2105L-D.PDF" H 7425 4125 50  0001 C CNN
	1    7300 4000
	1    0    0    -1  
$EndComp
Wire Wire Line
	7000 3700 7200 3700
Wire Wire Line
	7200 3700 7200 3800
Wire Wire Line
	7000 3500 7400 3500
Wire Wire Line
	7400 3500 7400 3800
$Comp
L power:GNDD #PWR0107
U 1 1 61581F2E
P 7300 4200
F 0 "#PWR0107" H 7300 3950 50  0001 C CNN
F 1 "GNDD" H 7304 4045 50  0000 C CNN
F 2 "" H 7300 4200 50  0001 C CNN
F 3 "" H 7300 4200 50  0001 C CNN
	1    7300 4200
	1    0    0    -1  
$EndComp
Connection ~ 7200 3700
Connection ~ 7400 3500
$Comp
L passives:TBU TBU2
U 1 1 615836E4
P 7900 3700
F 0 "TBU2" H 7900 3600 50  0000 C CNN
F 1 "TBU-CA065-200" H 7900 3500 50  0000 C CNN
F 2 "passives:TBU-CA" H 7900 3700 50  0001 C CNN
F 3 "" H 7900 3700 50  0001 C CNN
	1    7900 3700
	1    0    0    -1  
$EndComp
Wire Wire Line
	7400 3500 7800 3500
Wire Wire Line
	7200 3700 7800 3700
$Comp
L power:GNDD #PWR0108
U 1 1 6158552E
P 8600 4100
F 0 "#PWR0108" H 8600 3850 50  0001 C CNN
F 1 "GNDD" H 8604 3945 50  0000 C CNN
F 2 "" H 8600 4100 50  0001 C CNN
F 3 "" H 8600 4100 50  0001 C CNN
	1    8600 4100
	1    0    0    -1  
$EndComp
Wire Wire Line
	8700 3600 8600 3600
Wire Wire Line
	8000 3700 8800 3700
Wire Wire Line
	8000 3500 8800 3500
Connection ~ 8800 3500
Connection ~ 8800 3700
Wire Wire Line
	8600 3600 8600 4100
Wire Wire Line
	8800 3700 9300 3700
Wire Wire Line
	8800 3500 9300 3500
$Comp
L Connector:Conn_01x01_Female J3
U 1 1 616B8C77
P 9500 3500
F 0 "J3" H 9528 3526 50  0000 L CNN
F 1 "CANH" H 9528 3435 50  0000 L CNN
F 2 "connectors:WAGO_243_xxx" H 9500 3500 50  0001 C CNN
F 3 "~" H 9500 3500 50  0001 C CNN
	1    9500 3500
	1    0    0    -1  
$EndComp
$Comp
L Connector:Conn_01x01_Female J4
U 1 1 616B912D
P 9500 3700
F 0 "J4" H 9528 3726 50  0000 L CNN
F 1 "CANL" H 9528 3635 50  0000 L CNN
F 2 "connectors:WAGO_243_xxx" H 9500 3700 50  0001 C CNN
F 3 "~" H 9500 3700 50  0001 C CNN
	1    9500 3700
	1    0    0    -1  
$EndComp
$Comp
L interface:MCP2562-E-MF U7
U 1 1 6179A3A1
P 5000 3900
F 0 "U7" H 5000 4567 50  0000 C CNN
F 1 "MCP2562-E-MF" H 5000 4476 50  0000 C CNN
F 2 "Package_SO:SOIC-8_3.9x4.9mm_P1.27mm" H 5000 3200 50  0001 C CIN
F 3 "" H 5000 3900 50  0001 C CNN
	1    5000 3900
	1    0    0    -1  
$EndComp
Wire Wire Line
	5500 3500 6100 3500
Wire Wire Line
	5500 3700 6100 3700
Wire Wire Line
	3300 3800 4500 3800
Wire Wire Line
	3200 4000 4500 4000
Wire Wire Line
	3200 4100 4500 4100
$EndSCHEMATC
