EESchema Schematic File Version 4
EELAYER 30 0
EELAYER END
$Descr A4 11693 8268
encoding utf-8
Sheet 2 5
Title "Vy-pi-nac"
Date "2021-09-30"
Rev "1.0.0"
Comp "(c) qyx@krtko.org, CC-BY-SA 4.0"
Comment1 "Wall switch controller with CAN-FD interface"
Comment2 ""
Comment3 ""
Comment4 ""
$EndDescr
$Comp
L Connector:Conn_01x06_Female J5
U 1 1 61665DA4
P 5500 6100
F 0 "J5" H 5528 6076 50  0000 L CNN
F 1 "LED Outputs" H 5528 5985 50  0000 L CNN
F 2 "Connector_JST:JST_PH_B6B-PH-K_1x06_P2.00mm_Vertical" H 5500 6100 50  0001 C CNN
F 3 "~" H 5500 6100 50  0001 C CNN
	1    5500 6100
	1    0    0    -1  
$EndComp
$Comp
L drivers:74AHCT125 U5
U 1 1 61666C99
P 2700 6100
F 0 "U5" H 2700 6865 50  0000 C CNN
F 1 "74AHCT125" H 2700 6774 50  0000 C CNN
F 2 "Package_SO:TSSOP-14_4.4x5mm_P0.65mm" H 2700 6200 50  0001 C CNN
F 3 "" H 2700 6200 50  0001 C CNN
	1    2700 6100
	1    0    0    -1  
$EndComp
$Comp
L power:GNDD #PWR0136
U 1 1 6166D56A
P 5200 6500
F 0 "#PWR0136" H 5200 6250 50  0001 C CNN
F 1 "GNDD" H 5204 6345 50  0000 C CNN
F 2 "" H 5200 6500 50  0001 C CNN
F 3 "" H 5200 6500 50  0001 C CNN
	1    5200 6500
	1    0    0    -1  
$EndComp
Wire Wire Line
	5300 6400 5200 6400
Wire Wire Line
	5200 6400 5200 6500
$Comp
L power:GNDD #PWR0137
U 1 1 6166E51C
P 4400 6700
F 0 "#PWR0137" H 4400 6450 50  0001 C CNN
F 1 "GNDD" H 4404 6545 50  0000 C CNN
F 2 "" H 4400 6700 50  0001 C CNN
F 3 "" H 4400 6700 50  0001 C CNN
	1    4400 6700
	1    0    0    -1  
$EndComp
$Comp
L Device:C_Small C23
U 1 1 6167213B
P 3700 5500
F 0 "C23" H 3792 5546 50  0000 L CNN
F 1 "100n" H 3792 5455 50  0000 L CNN
F 2 "Capacitor_SMD:C_0603_1608Metric" H 3700 5500 50  0001 C CNN
F 3 "~" H 3700 5500 50  0001 C CNN
	1    3700 5500
	1    0    0    -1  
$EndComp
$Comp
L power:GNDD #PWR0138
U 1 1 61672370
P 3700 5600
F 0 "#PWR0138" H 3700 5350 50  0001 C CNN
F 1 "GNDD" H 3704 5445 50  0000 C CNN
F 2 "" H 3700 5600 50  0001 C CNN
F 3 "" H 3700 5600 50  0001 C CNN
	1    3700 5600
	1    0    0    -1  
$EndComp
Wire Wire Line
	3100 5600 3300 5600
Wire Wire Line
	3300 5600 3300 5300
Wire Wire Line
	3300 5300 3700 5300
Wire Wire Line
	3700 5300 3700 5400
Wire Wire Line
	3700 5300 4300 5300
Wire Wire Line
	4300 5300 4300 5800
Connection ~ 3700 5300
$Comp
L power:+5V #PWR0139
U 1 1 616730D0
P 4300 5200
F 0 "#PWR0139" H 4300 5050 50  0001 C CNN
F 1 "+5V" H 4315 5373 50  0000 C CNN
F 2 "" H 4300 5200 50  0001 C CNN
F 3 "" H 4300 5200 50  0001 C CNN
	1    4300 5200
	1    0    0    -1  
$EndComp
Wire Wire Line
	4300 5200 4300 5300
Connection ~ 4300 5300
$Comp
L power:GNDD #PWR0140
U 1 1 61676D1C
P 3300 6700
F 0 "#PWR0140" H 3300 6450 50  0001 C CNN
F 1 "GNDD" H 3304 6545 50  0000 C CNN
F 2 "" H 3300 6700 50  0001 C CNN
F 3 "" H 3300 6700 50  0001 C CNN
	1    3300 6700
	1    0    0    -1  
$EndComp
Wire Wire Line
	3100 6600 3300 6600
Wire Wire Line
	3300 6600 3300 6700
Wire Wire Line
	2300 5600 2100 5600
Wire Wire Line
	2300 5900 2100 5900
Wire Wire Line
	2100 5700 2200 5700
Wire Wire Line
	2300 6000 2200 6000
Wire Wire Line
	2200 6000 2200 5700
Connection ~ 2200 5700
Wire Wire Line
	2200 5700 2300 5700
Wire Wire Line
	2300 6300 2200 6300
Wire Wire Line
	2200 6300 2200 6000
Connection ~ 2200 6000
Wire Wire Line
	2300 6600 2200 6600
Wire Wire Line
	2200 6600 2200 6300
Connection ~ 2200 6300
Wire Wire Line
	2300 6200 2100 6200
Wire Wire Line
	2300 6500 2100 6500
Text GLabel 2100 5600 0    50   Input ~ 0
LED1_WS28xx
Text GLabel 2100 5700 0    50   Input ~ 0
LED_OE
Text GLabel 2100 5900 0    50   Input ~ 0
LED2
Text GLabel 2100 6200 0    50   Input ~ 0
LED3
Text GLabel 2100 6500 0    50   Input ~ 0
LED4
$Comp
L Power_Protection:ESDA6V1-5SC6 D4
U 1 1 6167D7C4
P 3000 3100
F 0 "D4" H 3200 2900 50  0000 L CNN
F 1 "ESDA5V3-5SC6" H 3200 2800 50  0000 L CNN
F 2 "Package_TO_SOT_SMD:SOT-23-6" H 3700 2850 50  0001 C CNN
F 3 "www.st.com/resource/en/datasheet/esda6v1-5sc6.pdf" V 3000 3100 50  0001 C CNN
	1    3000 3100
	1    0    0    -1  
$EndComp
$Comp
L Connector:Conn_01x06_Female J6
U 1 1 6167ECD1
P 4500 2500
F 0 "J6" H 4528 2476 50  0000 L CNN
F 1 "Switch inputs" H 4528 2385 50  0000 L CNN
F 2 "Connector_JST:JST_PH_B6B-PH-K_1x06_P2.00mm_Vertical" H 4500 2500 50  0001 C CNN
F 3 "~" H 4500 2500 50  0001 C CNN
	1    4500 2500
	1    0    0    -1  
$EndComp
$Comp
L power:GNDD #PWR0141
U 1 1 61682914
P 4200 2900
F 0 "#PWR0141" H 4200 2650 50  0001 C CNN
F 1 "GNDD" H 4204 2745 50  0000 C CNN
F 2 "" H 4200 2900 50  0001 C CNN
F 3 "" H 4200 2900 50  0001 C CNN
	1    4200 2900
	1    0    0    -1  
$EndComp
Connection ~ 3700 2700
$Comp
L Device:R_Pack04 RN2
U 1 1 616964DE
P 2200 2500
F 0 "RN2" V 1783 2500 50  0000 C CNN
F 1 "10k" V 1874 2500 50  0000 C CNN
F 2 "Resistor_SMD:R_Array_Convex_4x0603" V 2475 2500 50  0001 C CNN
F 3 "~" H 2200 2500 50  0001 C CNN
	1    2200 2500
	0    -1   -1   0   
$EndComp
Wire Wire Line
	3500 2500 4300 2500
Wire Wire Line
	3600 2600 4300 2600
Wire Wire Line
	3700 2700 4300 2700
$Comp
L Device:R_Pack04 RN3
U 1 1 61699909
P 3500 2100
F 0 "RN3" H 3220 2054 50  0000 R CNN
F 1 "10k" H 3220 2145 50  0000 R CNN
F 2 "Resistor_SMD:R_Array_Convex_4x0603" V 3775 2100 50  0001 C CNN
F 3 "~" H 3500 2100 50  0001 C CNN
	1    3500 2100
	-1   0    0    -1  
$EndComp
Wire Wire Line
	4300 2300 4200 2300
Wire Wire Line
	4200 2300 4200 2800
Wire Wire Line
	4300 2800 4200 2800
Connection ~ 4200 2800
Wire Wire Line
	4200 2800 4200 2900
Wire Wire Line
	3400 2300 3400 2400
Wire Wire Line
	3500 2300 3500 2500
Wire Wire Line
	3600 2300 3600 2600
$Comp
L Device:R_Pack04 RN1
U 1 1 616A2FD4
P 3600 6100
F 0 "RN1" V 3800 6100 50  0000 C CNN
F 1 "75R" V 3900 6100 50  0000 C CNN
F 2 "Resistor_SMD:R_Array_Convex_4x0603" V 3875 6100 50  0001 C CNN
F 3 "~" H 3600 6100 50  0001 C CNN
	1    3600 6100
	0    1    1    0   
$EndComp
Wire Wire Line
	3400 5900 3100 5900
Wire Wire Line
	3100 6000 3400 6000
Wire Wire Line
	3400 6100 3100 6100
Wire Wire Line
	3100 6200 3400 6200
Wire Wire Line
	3400 2400 4300 2400
Wire Wire Line
	3700 2300 3700 2700
Wire Wire Line
	1800 2400 2000 2400
Wire Wire Line
	1800 2500 2000 2500
Wire Wire Line
	1800 2600 2000 2600
Wire Wire Line
	1800 2700 2000 2700
Text GLabel 1800 2400 0    50   Input ~ 0
DIN1
Text GLabel 1800 2500 0    50   Input ~ 0
DIN2
Text GLabel 1800 2600 0    50   Input ~ 0
DIN3
Text GLabel 1800 2700 0    50   Input ~ 0
DIN4
$Comp
L power:+5V #PWR0142
U 1 1 616B8F44
P 3400 1700
F 0 "#PWR0142" H 3400 1550 50  0001 C CNN
F 1 "+5V" H 3415 1873 50  0000 C CNN
F 2 "" H 3400 1700 50  0001 C CNN
F 3 "" H 3400 1700 50  0001 C CNN
	1    3400 1700
	1    0    0    -1  
$EndComp
Wire Wire Line
	3400 1700 3400 1800
Wire Wire Line
	3400 1800 3500 1800
Wire Wire Line
	3500 1800 3500 1900
Connection ~ 3400 1800
Wire Wire Line
	3400 1800 3400 1900
Wire Wire Line
	3500 1800 3600 1800
Wire Wire Line
	3600 1800 3600 1900
Connection ~ 3500 1800
Wire Wire Line
	3600 1800 3700 1800
Wire Wire Line
	3700 1800 3700 1900
Connection ~ 3600 1800
$Comp
L power:GNDD #PWR0150
U 1 1 616D43C8
P 3000 3300
F 0 "#PWR0150" H 3000 3050 50  0001 C CNN
F 1 "GNDD" H 3004 3145 50  0000 C CNN
F 2 "" H 3000 3300 50  0001 C CNN
F 3 "" H 3000 3300 50  0001 C CNN
	1    3000 3300
	1    0    0    -1  
$EndComp
$Comp
L power:GNDD #PWR0151
U 1 1 616D5C7C
P 9200 2800
F 0 "#PWR0151" H 9200 2550 50  0001 C CNN
F 1 "GNDD" H 9204 2645 50  0000 C CNN
F 2 "" H 9200 2800 50  0001 C CNN
F 3 "" H 9200 2800 50  0001 C CNN
	1    9200 2800
	1    0    0    -1  
$EndComp
Wire Wire Line
	9300 2700 9200 2700
Wire Wire Line
	9200 2700 9200 2800
$Comp
L Power_Protection:ESDA6V1-5SC6 D5
U 1 1 616D9AD6
P 8500 3000
F 0 "D5" H 8700 2800 50  0000 L CNN
F 1 "ESDA5V3-5SC6" H 8700 2700 50  0000 L CNN
F 2 "Package_TO_SOT_SMD:SOT-23-6" H 9200 2750 50  0001 C CNN
F 3 "www.st.com/resource/en/datasheet/esda6v1-5sc6.pdf" V 8500 3000 50  0001 C CNN
	1    8500 3000
	1    0    0    -1  
$EndComp
$Comp
L power:GNDD #PWR0152
U 1 1 616DB7D0
P 8500 3200
F 0 "#PWR0152" H 8500 2950 50  0001 C CNN
F 1 "GNDD" H 8504 3045 50  0000 C CNN
F 2 "" H 8500 3200 50  0001 C CNN
F 3 "" H 8500 3200 50  0001 C CNN
	1    8500 3200
	1    0    0    -1  
$EndComp
$Comp
L Device:R_Pack04 RN4
U 1 1 616DFA7F
P 7900 2400
F 0 "RN4" V 8225 2400 50  0000 C CNN
F 1 "10k" V 8134 2400 50  0000 C CNN
F 2 "Resistor_SMD:R_Array_Convex_4x0603" V 8175 2400 50  0001 C CNN
F 3 "~" H 7900 2400 50  0001 C CNN
	1    7900 2400
	0    -1   -1   0   
$EndComp
$Comp
L power:+3V3 #PWR0153
U 1 1 616E73B6
P 7500 2100
F 0 "#PWR0153" H 7500 1950 50  0001 C CNN
F 1 "+3V3" H 7515 2273 50  0000 C CNN
F 2 "" H 7500 2100 50  0001 C CNN
F 3 "" H 7500 2100 50  0001 C CNN
	1    7500 2100
	1    0    0    -1  
$EndComp
$Comp
L Device:C_Small C30
U 1 1 616E9F23
P 7200 2800
F 0 "C30" H 7292 2846 50  0000 L CNN
F 1 "100n" H 7292 2755 50  0000 L CNN
F 2 "Capacitor_SMD:C_0603_1608Metric" H 7200 2800 50  0001 C CNN
F 3 "~" H 7200 2800 50  0001 C CNN
	1    7200 2800
	1    0    0    -1  
$EndComp
$Comp
L Connector:Conn_01x04_Female J7
U 1 1 616D5148
P 9500 2500
F 0 "J7" H 9528 2476 50  0000 L CNN
F 1 "NTC Inputs" H 9528 2385 50  0000 L CNN
F 2 "Connector_JST:JST_PH_B4B-PH-K_1x04_P2.00mm_Vertical" H 9500 2500 50  0001 C CNN
F 3 "~" H 9500 2500 50  0001 C CNN
	1    9500 2500
	1    0    0    -1  
$EndComp
Wire Wire Line
	9300 2500 9200 2500
Wire Wire Line
	9200 2500 9200 2700
Connection ~ 9200 2700
Wire Wire Line
	8100 2500 8200 2500
Wire Wire Line
	8200 2500 8200 2600
Connection ~ 8200 2600
Wire Wire Line
	8200 2600 8100 2600
Wire Wire Line
	9300 2400 8700 2400
Wire Wire Line
	8100 2300 8200 2300
Wire Wire Line
	8200 2300 8200 2400
Connection ~ 8200 2400
Wire Wire Line
	8200 2400 8100 2400
Wire Wire Line
	8500 2800 8500 2700
Wire Wire Line
	8400 2800 8400 2700
Wire Wire Line
	8300 2800 8300 2700
NoConn ~ 8300 2700
NoConn ~ 8400 2700
NoConn ~ 8500 2700
Wire Wire Line
	7700 2300 7500 2300
Wire Wire Line
	7500 2300 7500 2100
Wire Wire Line
	7700 2500 7500 2500
Wire Wire Line
	7500 2500 7500 2300
Connection ~ 7500 2300
$Comp
L power:GNDD #PWR0154
U 1 1 6171EC9A
P 7200 3000
F 0 "#PWR0154" H 7200 2750 50  0001 C CNN
F 1 "GNDD" H 7204 2845 50  0000 C CNN
F 2 "" H 7200 3000 50  0001 C CNN
F 3 "" H 7200 3000 50  0001 C CNN
	1    7200 3000
	1    0    0    -1  
$EndComp
$Comp
L Device:C_Small C29
U 1 1 6171EF99
P 6800 2800
F 0 "C29" H 6892 2846 50  0000 L CNN
F 1 "100n" H 6892 2755 50  0000 L CNN
F 2 "Capacitor_SMD:C_0603_1608Metric" H 6800 2800 50  0001 C CNN
F 3 "~" H 6800 2800 50  0001 C CNN
	1    6800 2800
	1    0    0    -1  
$EndComp
$Comp
L power:GNDD #PWR0155
U 1 1 6171F250
P 6800 3000
F 0 "#PWR0155" H 6800 2750 50  0001 C CNN
F 1 "GNDD" H 6804 2845 50  0000 C CNN
F 2 "" H 6800 3000 50  0001 C CNN
F 3 "" H 6800 3000 50  0001 C CNN
	1    6800 3000
	1    0    0    -1  
$EndComp
Wire Wire Line
	7700 2600 7200 2600
Wire Wire Line
	7200 2600 7200 2700
Wire Wire Line
	7700 2400 6800 2400
Wire Wire Line
	6800 2400 6800 2700
Wire Wire Line
	7200 2600 6600 2600
Connection ~ 7200 2600
Wire Wire Line
	6800 2400 6600 2400
Connection ~ 6800 2400
Text GLabel 6600 2400 0    50   Input ~ 0
NTC1
Text GLabel 6600 2600 0    50   Input ~ 0
NTC2
Wire Wire Line
	6800 2900 6800 3000
Wire Wire Line
	7200 2900 7200 3000
Wire Wire Line
	2800 2700 2800 2900
Connection ~ 3400 2400
Connection ~ 3500 2500
Wire Wire Line
	2400 2600 3200 2600
Connection ~ 3600 2600
Wire Wire Line
	2400 2700 2800 2700
Connection ~ 2800 2700
Wire Wire Line
	2800 2700 3700 2700
Wire Wire Line
	3200 2600 3200 2900
Connection ~ 3200 2600
Wire Wire Line
	3200 2600 3600 2600
Wire Wire Line
	3100 2500 3100 2900
Connection ~ 3100 2500
Wire Wire Line
	3100 2500 3500 2500
Wire Wire Line
	2400 2500 3100 2500
Wire Wire Line
	2400 2400 3000 2400
Wire Wire Line
	3000 2900 3000 2400
Connection ~ 3000 2400
Wire Wire Line
	3000 2400 3400 2400
Wire Wire Line
	2900 2900 2900 2800
NoConn ~ 2900 2800
Wire Wire Line
	3800 5900 4400 5900
Wire Wire Line
	3800 6000 4500 6000
$Comp
L Power_Protection:ESDA6V1-5SC6 D3
U 1 1 6166BFD2
P 4400 6500
F 0 "D3" H 4600 6300 50  0000 L CNN
F 1 "ESDA5V3-5SC6" H 4600 6200 50  0000 L CNN
F 2 "Package_TO_SOT_SMD:SOT-23-6" H 5100 6250 50  0001 C CNN
F 3 "www.st.com/resource/en/datasheet/esda6v1-5sc6.pdf" V 4400 6500 50  0001 C CNN
	1    4400 6500
	1    0    0    -1  
$EndComp
Wire Wire Line
	5300 6300 5200 6300
Wire Wire Line
	5200 6300 5200 5800
Wire Wire Line
	3800 6100 4600 6100
Wire Wire Line
	3800 6200 4200 6200
Wire Wire Line
	4300 6300 4300 5800
Connection ~ 4300 5800
Wire Wire Line
	4300 5800 5200 5800
Wire Wire Line
	4200 6300 4200 6200
Connection ~ 4200 6200
Wire Wire Line
	4200 6200 5300 6200
Wire Wire Line
	4600 6300 4600 6100
Connection ~ 4600 6100
Wire Wire Line
	4600 6100 5300 6100
Wire Wire Line
	4500 6300 4500 6000
Connection ~ 4500 6000
Wire Wire Line
	4500 6000 5300 6000
Wire Wire Line
	4400 6300 4400 5900
Connection ~ 4400 5900
Wire Wire Line
	4400 5900 5300 5900
Wire Wire Line
	8200 2600 8600 2600
Wire Wire Line
	8700 2800 8700 2400
Connection ~ 8700 2400
Wire Wire Line
	8200 2400 8700 2400
Wire Wire Line
	8600 2600 8600 2800
Connection ~ 8600 2600
Wire Wire Line
	8600 2600 9300 2600
$EndSCHEMATC
