EESchema Schematic File Version 4
EELAYER 30 0
EELAYER END
$Descr A4 11693 8268
encoding utf-8
Sheet 4 5
Title "Vy-pi-nac"
Date "2021-09-30"
Rev "1.0.0"
Comp "(c) qyx@krtko.org, CC-BY-SA 4.0"
Comment1 "Wall switch controller with CAN-FD interface"
Comment2 ""
Comment3 ""
Comment4 ""
$EndDescr
$Comp
L Device:R_Small R8
U 1 1 6165286D
P 3600 1500
F 0 "R8" H 3659 1546 50  0000 L CNN
F 1 "100k" H 3659 1455 50  0000 L CNN
F 2 "Resistor_SMD:R_0603_1608Metric" H 3600 1500 50  0001 C CNN
F 3 "~" H 3600 1500 50  0001 C CNN
	1    3600 1500
	1    0    0    -1  
$EndComp
$Comp
L Device:C_Small C25
U 1 1 61652FE0
P 3200 2600
F 0 "C25" H 3292 2646 50  0000 L CNN
F 1 "100n" H 3292 2555 50  0000 L CNN
F 2 "Capacitor_SMD:C_0603_1608Metric" H 3200 2600 50  0001 C CNN
F 3 "~" H 3200 2600 50  0001 C CNN
	1    3200 2600
	1    0    0    -1  
$EndComp
$Comp
L Device:C_Small C24
U 1 1 616535FA
P 2800 2600
F 0 "C24" H 2892 2646 50  0000 L CNN
F 1 "1u" H 2892 2555 50  0000 L CNN
F 2 "Capacitor_SMD:C_0603_1608Metric" H 2800 2600 50  0001 C CNN
F 3 "~" H 2800 2600 50  0001 C CNN
	1    2800 2600
	1    0    0    -1  
$EndComp
$Comp
L Device:C_Small C28
U 1 1 61653A87
P 3600 1900
F 0 "C28" H 3692 1946 50  0000 L CNN
F 1 "100n" H 3692 1855 50  0000 L CNN
F 2 "Capacitor_SMD:C_0603_1608Metric" H 3600 1900 50  0001 C CNN
F 3 "~" H 3600 1900 50  0001 C CNN
	1    3600 1900
	1    0    0    -1  
$EndComp
$Comp
L power:GNDD #PWR0143
U 1 1 61654084
P 3600 2000
F 0 "#PWR0143" H 3600 1750 50  0001 C CNN
F 1 "GNDD" H 3604 1845 50  0000 C CNN
F 2 "" H 3600 2000 50  0001 C CNN
F 3 "" H 3600 2000 50  0001 C CNN
	1    3600 2000
	1    0    0    -1  
$EndComp
Wire Wire Line
	4000 1700 3600 1700
Wire Wire Line
	3600 1700 3600 1800
Wire Wire Line
	3600 1700 3600 1600
Connection ~ 3600 1700
$Comp
L power:GNDD #PWR0145
U 1 1 61654EB5
P 2800 2700
F 0 "#PWR0145" H 2800 2450 50  0001 C CNN
F 1 "GNDD" H 2804 2545 50  0000 C CNN
F 2 "" H 2800 2700 50  0001 C CNN
F 3 "" H 2800 2700 50  0001 C CNN
	1    2800 2700
	1    0    0    -1  
$EndComp
$Comp
L power:GNDD #PWR0146
U 1 1 616551F0
P 3200 2700
F 0 "#PWR0146" H 3200 2450 50  0001 C CNN
F 1 "GNDD" H 3204 2545 50  0000 C CNN
F 2 "" H 3200 2700 50  0001 C CNN
F 3 "" H 3200 2700 50  0001 C CNN
	1    3200 2700
	1    0    0    -1  
$EndComp
$Comp
L Device:C_Small C26
U 1 1 616577D2
P 3000 3700
F 0 "C26" V 2900 3600 50  0000 C CNN
F 1 "12p" V 2900 3800 50  0000 C CNN
F 2 "Capacitor_SMD:C_0603_1608Metric" H 3000 3700 50  0001 C CNN
F 3 "~" H 3000 3700 50  0001 C CNN
	1    3000 3700
	0    1    1    0   
$EndComp
$Comp
L Device:C_Small C27
U 1 1 61657B7B
P 3000 4100
F 0 "C27" V 2900 4000 50  0000 C CNN
F 1 "12p" V 2900 4200 50  0000 C CNN
F 2 "Capacitor_SMD:C_0603_1608Metric" H 3000 4100 50  0001 C CNN
F 3 "~" H 3000 4100 50  0001 C CNN
	1    3000 4100
	0    1    1    0   
$EndComp
$Comp
L power:GNDD #PWR0147
U 1 1 61658145
P 2700 4200
F 0 "#PWR0147" H 2700 3950 50  0001 C CNN
F 1 "GNDD" H 2704 4045 50  0000 C CNN
F 2 "" H 2700 4200 50  0001 C CNN
F 3 "" H 2700 4200 50  0001 C CNN
	1    2700 4200
	1    0    0    -1  
$EndComp
Wire Wire Line
	2900 4100 2700 4100
Wire Wire Line
	2700 4100 2700 4200
Wire Wire Line
	2900 3700 2700 3700
Wire Wire Line
	2700 3700 2700 4100
Connection ~ 2700 4100
$Comp
L power:GNDD #PWR0148
U 1 1 616596DA
P 4000 4600
F 0 "#PWR0148" H 4000 4350 50  0001 C CNN
F 1 "GNDD" H 4004 4445 50  0000 C CNN
F 2 "" H 4000 4600 50  0001 C CNN
F 3 "" H 4000 4600 50  0001 C CNN
	1    4000 4600
	1    0    0    -1  
$EndComp
Wire Wire Line
	4000 4500 4000 4600
$Comp
L Device:R_Small R9
U 1 1 61659F87
P 5700 4500
F 0 "R9" H 5641 4454 50  0000 R CNN
F 1 "10k" H 5641 4545 50  0000 R CNN
F 2 "Resistor_SMD:R_0603_1608Metric" H 5700 4500 50  0001 C CNN
F 3 "~" H 5700 4500 50  0001 C CNN
	1    5700 4500
	-1   0    0    1   
$EndComp
$Comp
L power:GNDD #PWR0149
U 1 1 6165A81A
P 5700 4600
F 0 "#PWR0149" H 5700 4350 50  0001 C CNN
F 1 "GNDD" H 5704 4445 50  0000 C CNN
F 2 "" H 5700 4600 50  0001 C CNN
F 3 "" H 5700 4600 50  0001 C CNN
	1    5700 4600
	1    0    0    -1  
$EndComp
Wire Wire Line
	5500 3300 5700 3300
Wire Wire Line
	5700 4300 5700 4400
Text GLabel 5700 3300 2    50   Input ~ 0
SWDIO
Text GLabel 5700 3400 2    50   Input ~ 0
SWCLK
Wire Wire Line
	5500 3100 5700 3100
Wire Wire Line
	5700 3200 5500 3200
Text GLabel 5700 3100 2    50   Input ~ 0
FDCAN1_RX
Text GLabel 5700 3200 2    50   Input ~ 0
FDCAN1_TX
Wire Wire Line
	5500 2000 5700 2000
Wire Wire Line
	5500 2100 5700 2100
Text GLabel 5700 2000 2    50   Input ~ 0
NTC1
Text GLabel 5700 2100 2    50   Input ~ 0
NTC2
Text GLabel 5700 2700 2    50   Input ~ 0
LED1_WS28xx
Text GLabel 5700 2600 2    50   Input ~ 0
LED2
Wire Wire Line
	5500 2600 5700 2600
Wire Wire Line
	5500 2700 5700 2700
Wire Wire Line
	5500 3700 5700 3700
Wire Wire Line
	5500 4200 5700 4200
Text GLabel 5700 3700 2    50   Input ~ 0
LED3
Text GLabel 5700 4200 2    50   Input ~ 0
LED4
Text Notes 6400 2800 0    50   ~ 0
Note:\nLED1-4 outputs map to TIM3 CH2, CH1, CH3, CH4\nLED1_WS28xx maps to SPI1_MOSI
Wire Wire Line
	5500 3800 5700 3800
Wire Wire Line
	5500 3900 5700 3900
Wire Wire Line
	5500 4000 5700 4000
Wire Wire Line
	5500 4100 5700 4100
Text GLabel 5700 3800 2    50   Input ~ 0
DIN1
Text GLabel 5700 3900 2    50   Input ~ 0
DIN2
Text GLabel 5700 4000 2    50   Input ~ 0
DIN3
Text GLabel 5700 4100 2    50   Input ~ 0
DIN4
Text Notes 6100 2100 0    50   ~ 0
Note: ADC1 channel 1, 2
Wire Wire Line
	5500 3000 5700 3000
Text GLabel 5700 3000 2    50   Input ~ 0
FDCAN1_SHDN
Wire Wire Line
	5500 2400 5700 2400
Wire Wire Line
	5500 2500 5700 2500
Wire Wire Line
	5500 3500 5700 3500
NoConn ~ 5700 3500
NoConn ~ 5700 2400
$Comp
L Device:LED_Small D6
U 1 1 615761A4
P 8600 2800
F 0 "D6" V 8646 2732 50  0000 R CNN
F 1 "Red" V 8555 2732 50  0000 R CNN
F 2 "LED_SMD:LED_0805_2012Metric" V 8600 2800 50  0001 C CNN
F 3 "~" V 8600 2800 50  0001 C CNN
	1    8600 2800
	0    -1   -1   0   
$EndComp
$Comp
L Device:LED_Small D7
U 1 1 61576B5D
P 9000 2800
F 0 "D7" V 9046 2732 50  0000 R CNN
F 1 "Green" V 8955 2732 50  0000 R CNN
F 2 "LED_SMD:LED_0805_2012Metric" V 9000 2800 50  0001 C CNN
F 3 "~" V 9000 2800 50  0001 C CNN
	1    9000 2800
	0    -1   -1   0   
$EndComp
$Comp
L Device:R_Small R10
U 1 1 61577064
P 8600 2500
F 0 "R10" H 8541 2454 50  0000 R CNN
F 1 "470R" H 8541 2545 50  0000 R CNN
F 2 "Resistor_SMD:R_0603_1608Metric" H 8600 2500 50  0001 C CNN
F 3 "~" H 8600 2500 50  0001 C CNN
	1    8600 2500
	-1   0    0    1   
$EndComp
$Comp
L Device:R_Small R11
U 1 1 61578D07
P 9000 2500
F 0 "R11" H 8941 2454 50  0000 R CNN
F 1 "470R" H 8941 2545 50  0000 R CNN
F 2 "Resistor_SMD:R_0603_1608Metric" H 9000 2500 50  0001 C CNN
F 3 "~" H 9000 2500 50  0001 C CNN
	1    9000 2500
	-1   0    0    1   
$EndComp
Wire Wire Line
	9000 2200 9000 2400
Wire Wire Line
	8600 2300 8600 2400
Wire Wire Line
	8600 2600 8600 2700
Wire Wire Line
	9000 2700 9000 2600
$Comp
L power:GNDD #PWR0157
U 1 1 6157CA10
P 8600 2900
F 0 "#PWR0157" H 8600 2650 50  0001 C CNN
F 1 "GNDD" H 8604 2745 50  0000 C CNN
F 2 "" H 8600 2900 50  0001 C CNN
F 3 "" H 8600 2900 50  0001 C CNN
	1    8600 2900
	1    0    0    -1  
$EndComp
$Comp
L power:GNDD #PWR0158
U 1 1 6157CE67
P 9000 2900
F 0 "#PWR0158" H 9000 2650 50  0001 C CNN
F 1 "GNDD" H 9004 2745 50  0000 C CNN
F 2 "" H 9000 2900 50  0001 C CNN
F 3 "" H 9000 2900 50  0001 C CNN
	1    9000 2900
	1    0    0    -1  
$EndComp
$Comp
L connectors:cortex_debug U6
U 1 1 61583434
P 4100 6700
F 0 "U6" H 4100 7265 50  0000 C CNN
F 1 "cortex_debug" H 4100 7174 50  0000 C CNN
F 2 "connectors:CortexDebug_Vertical_SMD" H 3900 6700 50  0001 C CNN
F 3 "" H 3900 6700 50  0001 C CNN
	1    4100 6700
	1    0    0    -1  
$EndComp
$Comp
L power:+3V3 #PWR0159
U 1 1 6158BFFE
P 3300 6000
F 0 "#PWR0159" H 3300 5850 50  0001 C CNN
F 1 "+3V3" H 3315 6173 50  0000 C CNN
F 2 "" H 3300 6000 50  0001 C CNN
F 3 "" H 3300 6000 50  0001 C CNN
	1    3300 6000
	1    0    0    -1  
$EndComp
$Comp
L power:GNDD #PWR0160
U 1 1 6158C8EE
P 3300 7000
F 0 "#PWR0160" H 3300 6750 50  0001 C CNN
F 1 "GNDD" H 3304 6845 50  0000 C CNN
F 2 "" H 3300 7000 50  0001 C CNN
F 3 "" H 3300 7000 50  0001 C CNN
	1    3300 7000
	1    0    0    -1  
$EndComp
Wire Wire Line
	3500 6400 3300 6400
Wire Wire Line
	3300 6100 3300 6000
Wire Wire Line
	3500 6900 3300 6900
Wire Wire Line
	3300 6900 3300 7000
Wire Wire Line
	4700 6900 4900 6900
Wire Wire Line
	4700 6800 4900 6800
Wire Wire Line
	4700 6400 4900 6400
Wire Wire Line
	4700 6600 4900 6600
Wire Wire Line
	4700 6700 4900 6700
$Comp
L Device:R_Small R12
U 1 1 61594BE5
P 3300 6200
F 0 "R12" H 3241 6154 50  0000 R CNN
F 1 "10k" H 3241 6245 50  0000 R CNN
F 2 "Resistor_SMD:R_0603_1608Metric" H 3300 6200 50  0001 C CNN
F 3 "~" H 3300 6200 50  0001 C CNN
	1    3300 6200
	-1   0    0    1   
$EndComp
Wire Wire Line
	3300 6300 3300 6400
Text GLabel 4900 6400 2    50   Input ~ 0
NRST
Text GLabel 4900 6600 2    50   Input ~ 0
SWCLK
Text GLabel 4900 6700 2    50   Input ~ 0
SWDIO
NoConn ~ 4900 6800
NoConn ~ 4900 6900
Wire Wire Line
	3600 1700 3400 1700
Text GLabel 3400 1700 0    50   Input ~ 0
NRST
Wire Wire Line
	4100 2000 4000 2000
Wire Wire Line
	4000 2000 4000 1700
$Comp
L power:+3V3 #PWR0120
U 1 1 617D8CCC
P 3600 1400
F 0 "#PWR0120" H 3600 1250 50  0001 C CNN
F 1 "+3V3" H 3615 1573 50  0000 C CNN
F 2 "" H 3600 1400 50  0001 C CNN
F 3 "" H 3600 1400 50  0001 C CNN
	1    3600 1400
	1    0    0    -1  
$EndComp
$Comp
L Device:C_Small C12
U 1 1 617DDBC2
P 3600 2600
F 0 "C12" H 3692 2646 50  0000 L CNN
F 1 "100n" H 3692 2555 50  0000 L CNN
F 2 "Capacitor_SMD:C_0603_1608Metric" H 3600 2600 50  0001 C CNN
F 3 "~" H 3600 2600 50  0001 C CNN
	1    3600 2600
	1    0    0    -1  
$EndComp
$Comp
L power:GNDD #PWR0121
U 1 1 617DDFAE
P 3600 2700
F 0 "#PWR0121" H 3600 2450 50  0001 C CNN
F 1 "GNDD" H 3604 2545 50  0000 C CNN
F 2 "" H 3600 2700 50  0001 C CNN
F 3 "" H 3600 2700 50  0001 C CNN
	1    3600 2700
	1    0    0    -1  
$EndComp
Wire Wire Line
	4100 2500 4000 2500
Wire Wire Line
	4000 2500 4000 2400
Wire Wire Line
	4000 2400 4100 2400
Wire Wire Line
	4000 2400 3600 2400
Wire Wire Line
	3600 2400 3600 2500
Connection ~ 4000 2400
Wire Wire Line
	3600 2400 3200 2400
Wire Wire Line
	3200 2400 3200 2500
Connection ~ 3600 2400
Wire Wire Line
	3200 2400 2800 2400
Wire Wire Line
	2800 2400 2800 2500
Connection ~ 3200 2400
$Comp
L power:+3V3 #PWR0122
U 1 1 617F199C
P 2800 2300
F 0 "#PWR0122" H 2800 2150 50  0001 C CNN
F 1 "+3V3" H 2815 2473 50  0000 C CNN
F 2 "" H 2800 2300 50  0001 C CNN
F 3 "" H 2800 2300 50  0001 C CNN
	1    2800 2300
	1    0    0    -1  
$EndComp
Wire Wire Line
	2800 2300 2800 2400
Connection ~ 2800 2400
$Comp
L Device:C_Small C14
U 1 1 617F40D6
P 3600 3200
F 0 "C14" H 3692 3246 50  0000 L CNN
F 1 "100n" H 3692 3155 50  0000 L CNN
F 2 "Capacitor_SMD:C_0603_1608Metric" H 3600 3200 50  0001 C CNN
F 3 "~" H 3600 3200 50  0001 C CNN
	1    3600 3200
	1    0    0    -1  
$EndComp
$Comp
L power:GNDD #PWR0124
U 1 1 617F4485
P 3200 3300
F 0 "#PWR0124" H 3200 3050 50  0001 C CNN
F 1 "GNDD" H 3204 3145 50  0000 C CNN
F 2 "" H 3200 3300 50  0001 C CNN
F 3 "" H 3200 3300 50  0001 C CNN
	1    3200 3300
	1    0    0    -1  
$EndComp
$Comp
L power:GNDD #PWR0127
U 1 1 617F4B46
P 3600 3300
F 0 "#PWR0127" H 3600 3050 50  0001 C CNN
F 1 "GNDD" H 3604 3145 50  0000 C CNN
F 2 "" H 3600 3300 50  0001 C CNN
F 3 "" H 3600 3300 50  0001 C CNN
	1    3600 3300
	1    0    0    -1  
$EndComp
$Comp
L Device:C_Small C13
U 1 1 617F518D
P 3200 3200
F 0 "C13" H 3292 3246 50  0000 L CNN
F 1 "1u" H 3292 3155 50  0000 L CNN
F 2 "Capacitor_SMD:C_0603_1608Metric" H 3200 3200 50  0001 C CNN
F 3 "~" H 3200 3200 50  0001 C CNN
	1    3200 3200
	1    0    0    -1  
$EndComp
Wire Wire Line
	4100 3000 3600 3000
Wire Wire Line
	3600 3000 3600 3100
Wire Wire Line
	3600 3000 3200 3000
Wire Wire Line
	3200 3000 3200 3100
Connection ~ 3600 3000
$Comp
L Device:Ferrite_Bead_Small FB1
U 1 1 617F9A74
P 2800 3000
F 0 "FB1" V 2900 2900 50  0000 C CNN
F 1 "600R" V 2900 3100 50  0000 C CNN
F 2 "Inductor_SMD:L_0603_1608Metric" V 2730 3000 50  0001 C CNN
F 3 "~" H 2800 3000 50  0001 C CNN
	1    2800 3000
	0    1    1    0   
$EndComp
$Comp
L Device:Crystal_GND24_Small Y1
U 1 1 618096FB
P 3400 3900
F 0 "Y1" V 3354 4044 50  0000 L CNN
F 1 "16M" V 3445 4044 50  0000 L CNN
F 2 "Crystal:Crystal_SMD_3225-4Pin_3.2x2.5mm" H 3400 3900 50  0001 C CNN
F 3 "~" H 3400 3900 50  0001 C CNN
	1    3400 3900
	0    1    1    0   
$EndComp
$Comp
L power:GNDD #PWR0144
U 1 1 6180D8A4
P 3300 4200
F 0 "#PWR0144" H 3300 3950 50  0001 C CNN
F 1 "GNDD" H 3304 4045 50  0000 C CNN
F 2 "" H 3300 4200 50  0001 C CNN
F 3 "" H 3300 4200 50  0001 C CNN
	1    3300 4200
	1    0    0    -1  
$EndComp
$Comp
L power:GNDD #PWR0156
U 1 1 6180DE4F
P 3500 4200
F 0 "#PWR0156" H 3500 3950 50  0001 C CNN
F 1 "GNDD" H 3504 4045 50  0000 C CNN
F 2 "" H 3500 4200 50  0001 C CNN
F 3 "" H 3500 4200 50  0001 C CNN
	1    3500 4200
	1    0    0    -1  
$EndComp
Wire Wire Line
	3300 3900 3300 4200
Wire Wire Line
	3500 3900 3500 4200
Wire Wire Line
	3100 4100 3400 4100
Wire Wire Line
	3400 4000 3400 4100
Connection ~ 3400 4100
Wire Wire Line
	3400 4100 4100 4100
Wire Wire Line
	3100 3700 3400 3700
Wire Wire Line
	3400 3700 3400 3800
Wire Wire Line
	3400 3700 4100 3700
Connection ~ 3400 3700
Wire Wire Line
	4100 4500 4000 4500
Wire Wire Line
	4100 4400 4000 4400
Wire Wire Line
	4000 4400 4000 4500
Connection ~ 4000 4500
Wire Wire Line
	4100 4300 4000 4300
Wire Wire Line
	4000 4300 4000 4400
Connection ~ 4000 4400
Wire Wire Line
	2900 3000 3200 3000
Connection ~ 3200 3000
$Comp
L power:+3V3 #PWR0161
U 1 1 6182A0CC
P 2500 2900
F 0 "#PWR0161" H 2500 2750 50  0001 C CNN
F 1 "+3V3" H 2515 3073 50  0000 C CNN
F 2 "" H 2500 2900 50  0001 C CNN
F 3 "" H 2500 2900 50  0001 C CNN
	1    2500 2900
	1    0    0    -1  
$EndComp
Wire Wire Line
	2700 3000 2500 3000
Wire Wire Line
	2500 3000 2500 2900
Wire Wire Line
	5500 3400 5700 3400
Wire Wire Line
	5500 4300 5700 4300
Wire Wire Line
	5500 2200 9000 2200
Wire Wire Line
	5500 2300 8600 2300
$Comp
L mcu:STM32G431KxTx U4
U 1 1 617C7074
P 4800 3100
F 0 "U4" H 4800 4465 50  0000 C CNN
F 1 "STM32G431KxTx" H 4800 4374 50  0000 C CNN
F 2 "Package_QFP:LQFP-32_7x7mm_P0.8mm" H 4800 2400 50  0001 C CNN
F 3 "" H 4800 2400 50  0001 C CNN
	1    4800 3100
	1    0    0    -1  
$EndComp
Wire Wire Line
	5500 2800 5700 2800
Wire Wire Line
	5500 2900 5700 2900
NoConn ~ 5700 2800
NoConn ~ 5700 2900
Text GLabel 5700 2500 2    50   Input ~ 0
LED_OE
$EndSCHEMATC
