EESchema Schematic File Version 4
EELAYER 30 0
EELAYER END
$Descr A4 11693 8268
encoding utf-8
Sheet 3 5
Title "Vy-pi-nac"
Date "2021-09-30"
Rev "1.0.0"
Comp "(c) qyx@krtko.org, CC-BY-SA 4.0"
Comment1 "Wall switch controller with CAN-FD interface"
Comment2 ""
Comment3 ""
Comment4 ""
$EndDescr
$Comp
L Device:L_Small L1
U 1 1 615B5E87
P 2800 3400
F 0 "L1" V 2985 3400 50  0000 C CNN
F 1 "4u7/0.5A" V 2894 3400 50  0000 C CNN
F 2 "Inductor_SMD:L_0805_2012Metric" H 2800 3400 50  0001 C CNN
F 3 "~" H 2800 3400 50  0001 C CNN
	1    2800 3400
	0    -1   -1   0   
$EndComp
$Comp
L Device:C_Small C11
U 1 1 615B7B26
P 3200 3600
F 0 "C11" H 3292 3646 50  0000 L CNN
F 1 "1u" H 3292 3555 50  0000 L CNN
F 2 "Capacitor_SMD:C_0805_2012Metric" H 3200 3600 50  0001 C CNN
F 3 "~" H 3200 3600 50  0001 C CNN
	1    3200 3600
	1    0    0    -1  
$EndComp
$Comp
L power:GNDD #PWR0123
U 1 1 615B7B3A
P 3200 3800
F 0 "#PWR0123" H 3200 3550 50  0001 C CNN
F 1 "GNDD" H 3204 3645 50  0000 C CNN
F 2 "" H 3200 3800 50  0001 C CNN
F 3 "" H 3200 3800 50  0001 C CNN
	1    3200 3800
	1    0    0    -1  
$EndComp
Wire Wire Line
	3200 3700 3200 3800
Wire Wire Line
	3200 3400 3200 3500
$Comp
L Device:C_Small C7
U 1 1 615C494C
P 2400 3600
F 0 "C7" H 2492 3646 50  0000 L CNN
F 1 "1u" H 2492 3555 50  0000 L CNN
F 2 "Capacitor_SMD:C_0805_2012Metric" H 2400 3600 50  0001 C CNN
F 3 "~" H 2400 3600 50  0001 C CNN
	1    2400 3600
	1    0    0    -1  
$EndComp
$Comp
L power:GNDD #PWR0125
U 1 1 615C4F74
P 2400 3800
F 0 "#PWR0125" H 2400 3550 50  0001 C CNN
F 1 "GNDD" H 2404 3645 50  0000 C CNN
F 2 "" H 2400 3800 50  0001 C CNN
F 3 "" H 2400 3800 50  0001 C CNN
	1    2400 3800
	1    0    0    -1  
$EndComp
Wire Wire Line
	2400 3800 2400 3700
Wire Wire Line
	2400 3400 2400 3500
$Comp
L Device:D_Zener_Small D2
U 1 1 615D7E87
P 3700 3600
F 0 "D2" V 3654 3668 50  0000 L CNN
F 1 "SMBJ24A" V 3745 3668 50  0000 L CNN
F 2 "Diode_SMD:D_SMB" V 3700 3600 50  0001 C CNN
F 3 "~" V 3700 3600 50  0001 C CNN
	1    3700 3600
	0    1    1    0   
$EndComp
$Comp
L power:GNDD #PWR0126
U 1 1 615DF6CB
P 3700 3800
F 0 "#PWR0126" H 3700 3550 50  0001 C CNN
F 1 "GNDD" H 3704 3645 50  0000 C CNN
F 2 "" H 3700 3800 50  0001 C CNN
F 3 "" H 3700 3800 50  0001 C CNN
	1    3700 3800
	1    0    0    -1  
$EndComp
Wire Wire Line
	3700 3800 3700 3700
$Comp
L Device:R_Small RV1
U 1 1 615E265C
P 1800 3600
F 0 "RV1" H 1859 3646 50  0000 L CNN
F 1 "40V" H 1859 3555 50  0000 L CNN
F 2 "Resistor_SMD:R_1210_3225Metric" H 1800 3600 50  0001 C CNN
F 3 "~" H 1800 3600 50  0001 C CNN
	1    1800 3600
	1    0    0    -1  
$EndComp
$Comp
L power:+24V #PWR0128
U 1 1 615F76E3
P 3700 3300
F 0 "#PWR0128" H 3700 3150 50  0001 C CNN
F 1 "+24V" H 3715 3473 50  0000 C CNN
F 2 "" H 3700 3300 50  0001 C CNN
F 3 "" H 3700 3300 50  0001 C CNN
	1    3700 3300
	1    0    0    -1  
$EndComp
Wire Wire Line
	1800 3400 1800 3500
$Comp
L power:GNDD #PWR0129
U 1 1 615FBB6B
P 1800 3800
F 0 "#PWR0129" H 1800 3550 50  0001 C CNN
F 1 "GNDD" H 1804 3645 50  0000 C CNN
F 2 "" H 1800 3800 50  0001 C CNN
F 3 "" H 1800 3800 50  0001 C CNN
	1    1800 3800
	1    0    0    -1  
$EndComp
Wire Wire Line
	1800 3800 1800 3700
Wire Wire Line
	1300 3400 1800 3400
Connection ~ 1800 3400
Wire Wire Line
	1800 3400 2000 3400
Wire Wire Line
	2200 3400 2400 3400
Connection ~ 2400 3400
$Comp
L passives:TBU TBU?
U 1 1 6160DBE8
P 2100 3400
AR Path="/6156E8B1/6160DBE8" Ref="TBU?"  Part="1" 
AR Path="/6156E809/6160DBE8" Ref="TBU3"  Part="1" 
F 0 "TBU3" H 2100 3500 50  0000 C CNN
F 1 "TBU-CA065-200" H 2100 3600 50  0000 C CNN
F 2 "passives:TBU-CA" H 2100 3400 50  0001 C CNN
F 3 "" H 2100 3400 50  0001 C CNN
	1    2100 3400
	1    0    0    -1  
$EndComp
$Comp
L ldo:TPS706DRV U3
U 1 1 6162C015
P 8400 1700
F 0 "U3" H 8400 2166 50  0000 C CNN
F 1 "TPS70633DRV" H 8400 2075 50  0000 C CNN
F 2 "Package_DFN_QFN:DFN-6-1EP_2x2mm_P0.65mm_EP1x1.6mm" H 8400 1200 50  0001 C CNN
F 3 "" H 8400 1900 50  0001 C CNN
	1    8400 1700
	1    0    0    -1  
$EndComp
$Comp
L Device:C_Small C20
U 1 1 6162C42C
P 7500 1800
F 0 "C20" H 7592 1846 50  0000 L CNN
F 1 "1u" H 7592 1755 50  0000 L CNN
F 2 "Capacitor_SMD:C_0603_1608Metric" H 7500 1800 50  0001 C CNN
F 3 "~" H 7500 1800 50  0001 C CNN
	1    7500 1800
	1    0    0    -1  
$EndComp
$Comp
L power:+5V #PWR0131
U 1 1 6162C958
P 7500 1400
F 0 "#PWR0131" H 7500 1250 50  0001 C CNN
F 1 "+5V" H 7515 1573 50  0000 C CNN
F 2 "" H 7500 1400 50  0001 C CNN
F 3 "" H 7500 1400 50  0001 C CNN
	1    7500 1400
	1    0    0    -1  
$EndComp
$Comp
L power:GNDD #PWR0132
U 1 1 6162D60E
P 7900 2100
F 0 "#PWR0132" H 7900 1850 50  0001 C CNN
F 1 "GNDD" H 7904 1945 50  0000 C CNN
F 2 "" H 7900 2100 50  0001 C CNN
F 3 "" H 7900 2100 50  0001 C CNN
	1    7900 2100
	1    0    0    -1  
$EndComp
$Comp
L power:GNDD #PWR0133
U 1 1 6162D893
P 7500 2100
F 0 "#PWR0133" H 7500 1850 50  0001 C CNN
F 1 "GNDD" H 7504 1945 50  0000 C CNN
F 2 "" H 7500 2100 50  0001 C CNN
F 3 "" H 7500 2100 50  0001 C CNN
	1    7500 2100
	1    0    0    -1  
$EndComp
Wire Wire Line
	8100 2000 7900 2000
Wire Wire Line
	7900 2000 7900 2100
Wire Wire Line
	8100 1900 7900 1900
Wire Wire Line
	7900 1900 7900 2000
Connection ~ 7900 2000
Wire Wire Line
	8100 1700 7900 1700
Wire Wire Line
	7900 1700 7900 1500
Wire Wire Line
	7900 1500 8100 1500
Wire Wire Line
	7900 1500 7500 1500
Wire Wire Line
	7500 1500 7500 1700
Connection ~ 7900 1500
Wire Wire Line
	7500 1900 7500 2100
Wire Wire Line
	7500 1400 7500 1500
Connection ~ 7500 1500
$Comp
L Device:C_Small C22
U 1 1 6164017C
P 8900 1800
F 0 "C22" H 8992 1846 50  0000 L CNN
F 1 "1u" H 8992 1755 50  0000 L CNN
F 2 "Capacitor_SMD:C_0603_1608Metric" H 8900 1800 50  0001 C CNN
F 3 "~" H 8900 1800 50  0001 C CNN
	1    8900 1800
	1    0    0    -1  
$EndComp
$Comp
L power:GNDD #PWR0134
U 1 1 61640715
P 8900 2100
F 0 "#PWR0134" H 8900 1850 50  0001 C CNN
F 1 "GNDD" H 8904 1945 50  0000 C CNN
F 2 "" H 8900 2100 50  0001 C CNN
F 3 "" H 8900 2100 50  0001 C CNN
	1    8900 2100
	1    0    0    -1  
$EndComp
Wire Wire Line
	8900 2100 8900 1900
Wire Wire Line
	8700 1500 8900 1500
Wire Wire Line
	8900 1500 8900 1700
$Comp
L power:+3V3 #PWR0135
U 1 1 61646894
P 8900 1400
F 0 "#PWR0135" H 8900 1250 50  0001 C CNN
F 1 "+3V3" H 8915 1573 50  0000 C CNN
F 2 "" H 8900 1400 50  0001 C CNN
F 3 "" H 8900 1400 50  0001 C CNN
	1    8900 1400
	1    0    0    -1  
$EndComp
Wire Wire Line
	8900 1400 8900 1500
Connection ~ 8900 1500
$Comp
L Connector:Conn_01x01_Female J1
U 1 1 616B3BE6
P 1100 3400
F 0 "J1" H 992 3175 50  0000 C CNN
F 1 "24V" H 992 3266 50  0000 C CNN
F 2 "connectors:WAGO_243_xxx" H 1100 3400 50  0001 C CNN
F 3 "~" H 1100 3400 50  0001 C CNN
	1    1100 3400
	-1   0    0    1   
$EndComp
$Comp
L Connector:Conn_01x01_Female J2
U 1 1 616B4179
P 1100 3700
F 0 "J2" H 992 3475 50  0000 C CNN
F 1 "0V" H 992 3566 50  0000 C CNN
F 2 "connectors:WAGO_243_xxx" H 1100 3700 50  0001 C CNN
F 3 "~" H 1100 3700 50  0001 C CNN
	1    1100 3700
	-1   0    0    1   
$EndComp
$Comp
L power:GNDD #PWR0130
U 1 1 616B44DB
P 1400 3800
F 0 "#PWR0130" H 1400 3550 50  0001 C CNN
F 1 "GNDD" H 1404 3645 50  0000 C CNN
F 2 "" H 1400 3800 50  0001 C CNN
F 3 "" H 1400 3800 50  0001 C CNN
	1    1400 3800
	1    0    0    -1  
$EndComp
Wire Wire Line
	1300 3700 1400 3700
Wire Wire Line
	1400 3700 1400 3800
Wire Wire Line
	2400 3400 2700 3400
Wire Wire Line
	2900 3400 3200 3400
Connection ~ 3200 3400
Wire Wire Line
	3700 3300 3700 3400
Wire Wire Line
	3200 3400 3700 3400
Connection ~ 3700 3400
Wire Wire Line
	3700 3400 3700 3500
$Comp
L switching-regulators:MAX17630 U2
U 1 1 6179C2F5
P 5600 4000
F 0 "U2" H 5600 4865 50  0000 C CNN
F 1 "MAX17630" H 5600 4774 50  0000 C CNN
F 2 "Package_DFN_QFN:TQFN-16-1EP_3x3mm_P0.5mm_EP1.23x1.23mm" H 5600 4300 50  0001 C CNN
F 3 "" H 5600 4300 50  0001 C CNN
	1    5600 4000
	1    0    0    -1  
$EndComp
$Comp
L Device:C_Small C5
U 1 1 6179CFAE
P 4300 3600
F 0 "C5" H 4392 3646 50  0000 L CNN
F 1 "1u" H 4392 3555 50  0000 L CNN
F 2 "Capacitor_SMD:C_0805_2012Metric" H 4300 3600 50  0001 C CNN
F 3 "~" H 4300 3600 50  0001 C CNN
	1    4300 3600
	1    0    0    -1  
$EndComp
$Comp
L power:GNDD #PWR0109
U 1 1 6179D91B
P 4300 3800
F 0 "#PWR0109" H 4300 3550 50  0001 C CNN
F 1 "GNDD" H 4304 3645 50  0000 C CNN
F 2 "" H 4300 3800 50  0001 C CNN
F 3 "" H 4300 3800 50  0001 C CNN
	1    4300 3800
	1    0    0    -1  
$EndComp
Wire Wire Line
	3700 3400 4300 3400
Wire Wire Line
	4300 3400 4300 3500
Wire Wire Line
	4300 3700 4300 3800
Wire Wire Line
	4300 3400 5000 3400
Connection ~ 4300 3400
Wire Wire Line
	5100 3800 5000 3800
Wire Wire Line
	5000 3800 5000 3400
Connection ~ 5000 3400
Wire Wire Line
	5000 3400 5100 3400
$Comp
L Device:C_Small C9
U 1 1 617A84FF
P 4600 4500
F 0 "C9" H 4692 4546 50  0000 L CNN
F 1 "2u2" H 4692 4455 50  0000 L CNN
F 2 "Capacitor_SMD:C_0603_1608Metric" H 4600 4500 50  0001 C CNN
F 3 "~" H 4600 4500 50  0001 C CNN
	1    4600 4500
	1    0    0    -1  
$EndComp
$Comp
L power:GNDD #PWR0110
U 1 1 617A8DA7
P 5000 4900
F 0 "#PWR0110" H 5000 4650 50  0001 C CNN
F 1 "GNDD" H 5004 4745 50  0000 C CNN
F 2 "" H 5000 4900 50  0001 C CNN
F 3 "" H 5000 4900 50  0001 C CNN
	1    5000 4900
	1    0    0    -1  
$EndComp
Wire Wire Line
	5100 4600 5000 4600
Wire Wire Line
	5000 4600 5000 4900
Wire Wire Line
	5100 4500 5000 4500
Wire Wire Line
	5000 4500 5000 4600
Connection ~ 5000 4600
Wire Wire Line
	5100 4400 5000 4400
Wire Wire Line
	5000 4400 5000 4500
Connection ~ 5000 4500
Wire Wire Line
	5100 4200 5000 4200
NoConn ~ 5000 4200
Wire Wire Line
	5100 4100 4600 4100
Wire Wire Line
	4600 4100 4600 4400
$Comp
L power:GNDD #PWR0111
U 1 1 617BE113
P 4600 4900
F 0 "#PWR0111" H 4600 4650 50  0001 C CNN
F 1 "GNDD" H 4604 4745 50  0000 C CNN
F 2 "" H 4600 4900 50  0001 C CNN
F 3 "" H 4600 4900 50  0001 C CNN
	1    4600 4900
	1    0    0    -1  
$EndComp
Wire Wire Line
	4600 4600 4600 4900
$Comp
L Device:C_Small C10
U 1 1 617C2002
P 6300 4800
F 0 "C10" H 6208 4754 50  0000 R CNN
F 1 "10n" H 6208 4845 50  0000 R CNN
F 2 "Capacitor_SMD:C_0603_1608Metric" H 6300 4800 50  0001 C CNN
F 3 "~" H 6300 4800 50  0001 C CNN
	1    6300 4800
	-1   0    0    1   
$EndComp
Wire Wire Line
	6100 4600 6300 4600
Wire Wire Line
	6300 4600 6300 4700
$Comp
L power:GNDD #PWR0112
U 1 1 617C5BA1
P 6300 4900
F 0 "#PWR0112" H 6300 4650 50  0001 C CNN
F 1 "GNDD" H 6304 4745 50  0000 C CNN
F 2 "" H 6300 4900 50  0001 C CNN
F 3 "" H 6300 4900 50  0001 C CNN
	1    6300 4900
	1    0    0    -1  
$EndComp
Wire Wire Line
	6100 4300 6200 4300
NoConn ~ 6200 4300
$Comp
L Device:L_Small L2
U 1 1 617D3FDF
P 6900 3600
F 0 "L2" V 7085 3600 50  0000 C CNN
F 1 "4u7/0.5A" V 6994 3600 50  0000 C CNN
F 2 "Inductor_SMD:L_Taiyo-Yuden_MD-3030" H 6900 3600 50  0001 C CNN
F 3 "~" H 6900 3600 50  0001 C CNN
	1    6900 3600
	0    -1   -1   0   
$EndComp
$Comp
L Device:C_Small C4
U 1 1 617D52DA
P 6400 3400
F 0 "C4" V 6171 3400 50  0000 C CNN
F 1 "100n" V 6262 3400 50  0000 C CNN
F 2 "Capacitor_SMD:C_0603_1608Metric" H 6400 3400 50  0001 C CNN
F 3 "~" H 6400 3400 50  0001 C CNN
	1    6400 3400
	0    1    1    0   
$EndComp
Wire Wire Line
	6100 3600 6600 3600
Wire Wire Line
	6500 3400 6600 3400
Wire Wire Line
	6600 3400 6600 3600
Connection ~ 6600 3600
Wire Wire Line
	6600 3600 6800 3600
Wire Wire Line
	6300 3400 6100 3400
Wire Wire Line
	6100 3900 6200 3900
Wire Wire Line
	6200 3900 6200 4000
Wire Wire Line
	6200 4000 6100 4000
Wire Wire Line
	6200 4000 7200 4000
Wire Wire Line
	7200 4000 7200 3600
Wire Wire Line
	7200 3600 7000 3600
Connection ~ 6200 4000
$Comp
L Device:C_Small C6
U 1 1 617E8208
P 7500 3800
F 0 "C6" H 7592 3846 50  0000 L CNN
F 1 "10u/10V" H 7592 3755 50  0000 L CNN
F 2 "Capacitor_SMD:C_0603_1608Metric" H 7500 3800 50  0001 C CNN
F 3 "~" H 7500 3800 50  0001 C CNN
	1    7500 3800
	1    0    0    -1  
$EndComp
Wire Wire Line
	7200 3600 7500 3600
Wire Wire Line
	7500 3600 7500 3700
Connection ~ 7200 3600
$Comp
L power:GNDD #PWR0113
U 1 1 617EC515
P 7500 4000
F 0 "#PWR0113" H 7500 3750 50  0001 C CNN
F 1 "GNDD" H 7504 3845 50  0000 C CNN
F 2 "" H 7500 4000 50  0001 C CNN
F 3 "" H 7500 4000 50  0001 C CNN
	1    7500 4000
	1    0    0    -1  
$EndComp
Wire Wire Line
	7500 4000 7500 3900
$Comp
L Device:R_Small R6
U 1 1 617F1203
P 6700 4700
F 0 "R6" H 6759 4746 50  0000 L CNN
F 1 "12k" H 6759 4655 50  0000 L CNN
F 2 "Resistor_SMD:R_0603_1608Metric" H 6700 4700 50  0001 C CNN
F 3 "~" H 6700 4700 50  0001 C CNN
	1    6700 4700
	1    0    0    -1  
$EndComp
$Comp
L power:GNDD #PWR0114
U 1 1 617F1D68
P 6700 4900
F 0 "#PWR0114" H 6700 4650 50  0001 C CNN
F 1 "GNDD" H 6704 4745 50  0000 C CNN
F 2 "" H 6700 4900 50  0001 C CNN
F 3 "" H 6700 4900 50  0001 C CNN
	1    6700 4900
	1    0    0    -1  
$EndComp
Wire Wire Line
	6700 4900 6700 4800
Wire Wire Line
	6100 4500 6700 4500
Wire Wire Line
	6700 4500 6700 4600
$Comp
L power:+5V #PWR0115
U 1 1 617FA822
P 8100 3500
F 0 "#PWR0115" H 8100 3350 50  0001 C CNN
F 1 "+5V" H 8115 3673 50  0000 C CNN
F 2 "" H 8100 3500 50  0001 C CNN
F 3 "" H 8100 3500 50  0001 C CNN
	1    8100 3500
	1    0    0    -1  
$EndComp
$Comp
L Device:C_Small C8
U 1 1 617FACB7
P 8100 3800
F 0 "C8" H 8192 3846 50  0000 L CNN
F 1 "10u/10V" H 8192 3755 50  0000 L CNN
F 2 "Capacitor_SMD:C_0603_1608Metric" H 8100 3800 50  0001 C CNN
F 3 "~" H 8100 3800 50  0001 C CNN
	1    8100 3800
	1    0    0    -1  
$EndComp
$Comp
L power:GNDD #PWR0116
U 1 1 617FAFEE
P 8100 4000
F 0 "#PWR0116" H 8100 3750 50  0001 C CNN
F 1 "GNDD" H 8104 3845 50  0000 C CNN
F 2 "" H 8100 4000 50  0001 C CNN
F 3 "" H 8100 4000 50  0001 C CNN
	1    8100 4000
	1    0    0    -1  
$EndComp
Wire Wire Line
	8100 4000 8100 3900
Wire Wire Line
	7500 3600 8100 3600
Wire Wire Line
	8100 3600 8100 3700
Connection ~ 7500 3600
Wire Wire Line
	8100 3600 8100 3500
Connection ~ 8100 3600
Text Notes 7000 4700 0    50   ~ 0
f_SW = 1500 kHz
$EndSCHEMATC
